…
``` r
library(readxl)
```

## Importing and viewing the data

``` r
seasonal = read_excel('./data/seasonal_data_tidy.xlsx')

seasonal
```

    ## # A tibble: 9,150 x 12
    ##    daynum fourier  lower  upper surv_area raw_mean movavg61 gaussian61
    ##     <dbl>   <dbl>  <dbl>  <dbl>     <dbl> <lgl>    <lgl>    <lgl>     
    ##  1      1  -0.701 -0.749 -0.654         1 NA       NA       NA        
    ##  2      2  -0.699 -0.748 -0.650         1 NA       NA       NA        
    ##  3      3  -0.696 -0.745 -0.647         1 NA       NA       NA        
    ##  4      4  -0.693 -0.742 -0.643         1 NA       NA       NA        
    ##  5      5  -0.689 -0.739 -0.639         1 NA       NA       NA        
    ##  6      6  -0.686 -0.734 -0.637         1 NA       NA       NA        
    ##  7      7  -0.682 -0.729 -0.635         1 NA       NA       NA        
    ##  8      8  -0.680 -0.727 -0.633         1 NA       NA       NA        
    ##  9      9  -0.678 -0.726 -0.631         1 NA       NA       NA        
    ## 10     10  -0.676 -0.723 -0.629         1 NA       NA       NA        
    ## # ... with 9,140 more rows, and 4 more variables: tmax_raw_mean <lgl>,
    ## #   tmax_movavg61 <lgl>, tmin_raw_mean <lgl>, tmin_movavg61 <lgl>
…
